﻿{
  "name": "Stunfisk",
  "nationalPokedexNumber": 618,
  "primaryType": "ground",
  "secondaryType": "electric",
  "abilities": [
    "static",
    "limber",
    "h:sandveil"
  ],
  "drops": {
    "amount": 3,
    "entries": [
      {
        "item": "minecraft:mud",
        "quantityRange": "0-2"
      },
      {
        "item": "cobblemon:passho_berry",
        "percentage": 5.0
      }
    ]
  },
  "baseStats": {
    "hp": 109,
    "attack": 66,
    "defence": 84,
    "special_attack": 81,
    "special_defence": 99,
    "speed": 32
  },
  "features": [
    "galarian"
  ],
  "catchRate": 75,
  "maleRatio": 0.5,
  "shoulderMountable": false,
  "forms": [
    {
      "name": "Galar",
      "primaryType": "ground",
      "secondaryType": "steel",
      "abilities": [
        "mimicry"
      ],
      "baseStats": {
        "hp": 109,
        "attack": 81,
        "defence": 99,
        "special_attack": 66,
        "special_defence": 84,
        "speed": 32
      },
      "catchRate": 75,
      "maleRatio": 0.5,
      "baseExperienceYield": 165,
      "baseFriendship": 70,
      "evYield": {
        "hp": 2,
        "attack": 0,
        "defence": 0,
        "special_attack": 0,
        "special_defence": 0,
        "speed": 0
      },
      "experienceGroup": "medium_fast",
      "eggCycles": 20,
      "eggGroups": [
        "water_1",
        "amorphous"
      ],
      "moves": [
        "1:metalclaw",
        "1:mudslap",
        "1:tackle",
        "1:watergun",
        "5:endure",
        "10:mudshot",
        "15:revenge",
        "20:metalsound",
        "25:suckerpunch",
        "30:irondefense",
        "35:bounce",
        "40:muddywater",
        "45:snaptrap",
        "50:flail",
        "55:fissure",
        "egg:astonish",
        "egg:bind",
        "egg:counter",
        "egg:curse",
        "egg:painsplit",
        "egg:reflecttype",
        "egg:spite",
        "egg:yawn",
        "tm:attract",
        "tm:bounce",
        "tm:bulldoze",
        "tm:crunch",
        "tm:dig",
        "tm:earthpower",
        "tm:earthquake",
        "tm:endure",
        "tm:facade",
        "tm:flashcannon",
        "tm:foulplay",
        "tm:icefang",
        "tm:irondefense",
        "tm:muddywater",
        "tm:mudshot",
        "tm:payback",
        "tm:protect",
        "tm:raindance",
        "tm:rest",
        "tm:revenge",
        "tm:rockslide",
        "tm:rocktomb",
        "tm:round",
        "tm:sandstorm",
        "tm:scald",
        "tm:screech",
        "tm:sleeptalk",
        "tm:sludgebomb",
        "tm:sludgewave",
        "tm:snore",
        "tm:stealthrock",
        "tm:stompingtantrum",
        "tm:stoneedge",
        "tm:substitute",
        "tm:surf",
        "tm:thunderwave",
        "tm:uproar",
        "tutor:lashout",
        "tutor:steelbeam",
        "tutor:terrainpulse"
      ],
      "labels": [
        "gen8",
        "galar_regional"
      ],
      "aspects": [
        "galarian"
      ],
      "height": 7,
      "weight": 205,
      "cannotDynamax": false,
      "battleOnly": false
    }
  ],
  "baseExperienceYield": 165,
  "experienceGroup": "medium_fast",
  "eggCycles": 20,
  "eggGroups": [
    "water_1",
    "amorphous"
  ],
  "moves": [
    "1:mudslap",
    "1:mudsport",
    "1:tackle",
    "1:thundershock",
    "1:watergun",
    "5:bide",
    "5:endure",
    "10:mudshot",
    "15:revenge",
    "17:camouflage",
    "20:charge",
    "21:mudbomb",
    "25:suckerpunch",
    "30:electricterrain",
    "35:bounce",
    "40:muddywater",
    "45:discharge",
    "45:thunderbolt",
    "50:flail",
    "55:fissure",
    "egg:astonish",
    "egg:curse",
    "egg:earthpower",
    "egg:eerieimpulse",
    "egg:mefirst",
    "egg:painsplit",
    "egg:reflecttype",
    "egg:shockwave",
    "egg:sleeptalk",
    "egg:spark",
    "egg:spite",
    "egg:yawn",
    "tm:attract",
    "tm:bounce",
    "tm:bulldoze",
    "tm:confide",
    "tm:dig",
    "tm:doubleteam",
    "tm:earthpower",
    "tm:earthquake",
    "tm:eerieimpulse",
    "tm:electricterrain",
    "tm:electroweb",
    "tm:endure",
    "tm:facade",
    "tm:flash",
    "tm:foulplay",
    "tm:frustration",
    "tm:hiddenpower",
    "tm:infestation",
    "tm:muddywater",
    "tm:mudshot",
    "tm:payback",
    "tm:protect",
    "tm:raindance",
    "tm:rest",
    "tm:return",
    "tm:revenge",
    "tm:rockslide",
    "tm:rocktomb",
    "tm:round",
    "tm:sandstorm",
    "tm:scald",
    "tm:secretpower",
    "tm:sleeptalk",
    "tm:sludgebomb",
    "tm:sludgewave",
    "tm:snore",
    "tm:stealthrock",
    "tm:stompingtantrum",
    "tm:stoneedge",
    "tm:substitute",
    "tm:surf",
    "tm:swagger",
    "tm:thunder",
    "tm:thunderbolt",
    "tm:thunderwave",
    "tm:toxic",
    "tm:uproar",
    "tutor:aquatail",
    "tutor:bounce",
    "tutor:curse",
    "tutor:earthpower",
    "tutor:electroweb",
    "tutor:endeavor",
    "tutor:foulplay",
    "tutor:lashout",
    "tutor:magnetrise",
    "tutor:mudslap",
    "tutor:painsplit",
    "tutor:shockwave",
    "tutor:sleeptalk",
    "tutor:snore",
    "tutor:spite",
    "tutor:stealthrock",
    "tutor:stompingtantrum",
    "tutor:uproar",
    "tutor:waterpulse",
    "tutor:yawn"
  ],
  "labels": [
    "gen5",
    "unova_regional"
  ],
  "pokedex": [
    "cobblemon.species.stunfisk.desc"
  ],
  "evolutions": [],
  "baseScale": 1,
  "hitbox": {
    "width": 1,
    "height": 1,
    "fixed": false
  },
  "baseFriendship": 70,
  "evYield": {
    "hp": 2,
    "attack": 0,
    "defence": 0,
    "special_attack": 0,
    "special_defence": 0,
    "speed": 0
  },
  "height": 7,
  "weight": 110,
  "aspects": [],
  "cannotDynamax": false
}