{
  "placement": {
    "type": "minecraft:random_spread",
    "spacing": 20,
    "separation": 5,
    "salt": 1695780836,
    "spread_type": "triangular"
  },
  "structures": [
    {
      "structure": "cobblemon:warm_ocean_fossils_vents",
      "weight": 1
    }
  ]
}