{
  "maxScale": 0.9,
  "yTranslation": 0.1,
  "yGrowthPoint": 0.6875,
  "animations": [
    "bedrock(aerodactyl_fetus, sleep)"
  ],
  "quirks": [
    {
      "name": "quirk",
      "animations": [
        "bedrock(shieldon_fetus, quirk)"
      ],
      "loopTimes": 1,
      "minSeconds": 12,
      "maxSeconds": 20
    }
  ]
}