{
  "display": {
    "icon": {
      "item": "cobblemon:tumblestone_cluster"
    },
    "title": {
      "translate": "advancements.cobblemon.grow_tumblestone"
    },
    "description": {
      "translate": "advancements.cobblemon.grow_tumblestone.description"
    }
  },
  "parent": "cobblemon:obtain_tumblestone",
  "criteria": {
    "plant_tumblestone": {
      "trigger": "minecraft:item_used_on_block",
      "conditions": {
        "location": [
          {
            "condition": "minecraft:location_check",
            "predicate": {
              "block": {
                "blocks": [
                  "minecraft:dripstone_block"
                ]
              }
            }
          },
          {
            "condition": "minecraft:match_tool",
            "predicate": {
              "tag": "cobblemon:tumblestones"
            }
          }
        ]
      }
    }
  },
  "requirements": [
    [
      "plant_tumblestone"
    ]
  ],
  "sends_telemetry_event": false
}